



"Jeff" < <EMAILADDRESS> > wrote in message   <NEWSURL> ... 
Poor Jeff. 
 <URL>  
Study links hepatitis B vaccine to multiple sclerosis 




 <URL>  
 <URL>  
VACCINES  HEPATITIS-B HEP-B VACCINE,  an  UNJUSTIFIED  HEALTH  HAZARD 




 <URL> / 


 <URL>  


 <URL>  






 <URL>  



