


NB ISPs mentioned below received _unmunged_ copies    ie the munging is only done for posting to NANAS. 



From  <EMAILADDRESS>   Mon May 21 16:55:10 2007 Return-Path: { <EMAILADDRESS> > Received: from localhost ( <EMAILADDRESS>  [127.0.0.1]) 	by $munged$.demon.co.uk (8.13.1|8.13.1) with ESMTP id l4LFt916014664; 	Mon, 21 May 2007 16:55:10 +0100 Received: from pop3.demon.co.uk 	by localhost with POP3 (fetchmail-6.2.5) 	for  <EMAILADDRESS>  (by default); Mon, 21 May 2007 16:55:10 +0100 (BST) Received: from punt3.mail.demon.net by mailstore 	for $ <EMAILADDRESS>  id 1HqA6B-0a4Vbs-03-Cr2; 	Mon, 21 May 2007 15:47:03 +0000 Received: from [194.217.242.211] (lhlo=lon1-hub.mail.demon.net) 	by punt3.mail.demon.net with lmtp id 1HqA6B-0a4Vbs-03 	for $ <EMAILADDRESS> ; 	Mon, 21 May 2007 15:47:03 +0000 Received: from [212.135.6.53] (helo=apache2-wm.uk.easynet.net) 	by lon1-hub.mail.demon.net with esmtp id 1HqA6B-0000We-33 	for $ <EMAILADDRESS> ; Mon, 21 May 2007 15:47:03 +0000 Received: from www by apache2-wm.uk.easynet.net with local (Exim 3.36 #1) 	id 1Hq9es-000JfZ-00; Mon, 21 May 2007 16:18:50 +0100 Received: from tm.net.my (tm.net.my [60.52.117.136])  	by webmail.zoom.co.uk (IMP) with HTTP  	for { <EMAILADDRESS> >; Mon, 21 May 2007 16:18:48 +0100 Message-ID: { <EMAILADDRESS> > Date: Mon, 21 May 2007 16:18:48 +0100 From: JOANNA ELSON { <EMAILADDRESS> > Reply-to:  <EMAILADDRESS>  Subject: BUSINESS OFFER MIME-Version: 1.0 Content-Type: text|plain; charset=ISO-8859-1 Content-Transfer-Encoding: 8bit User-Agent: Internet Messaging Program (IMP) 3.2 X-Originating-IP: 60.52.117.136 To: $munged$ 


 I will also send the seller's contact details in Malaysia to you. 
I will also give the price of the vaccines in United Kingdom for you to  compare the price and see for  yourself. 
Please note that you have evry right to decline to this offer.                                  Regards   JOANNA ELSON 

----------------------------------------------- This mail sent through $http$:||webmail.zoom.co.uk 
For a copy of the guidelines to this group, see: 
	 <URL> / 

