


Why would  a product the FDA declared "Toxic" and "Ineffective"  in 1982  be in Flu vaccines? 


The Age of Autism: CDC probes vaccines By DAN OLMSTED UPI Senior Editor 

 <URL>  r 

-------------------------------- 


---------------------------------------------------------------------------- ------------------ 

 <URL>  &docid=f:72722.wais 



 <URL>  







