


Why would  a product the FDA declared "Toxic" and "Ineffective"  in 1982  be in Flu vaccines? 


Autism can't be caused by Thimerosal because they took it out of vaccines and children kept getting autism. It turns out that they didn't take it out. 
 <URL>  r 

-------------------------------- 


---------------------------------------------------------------------------- ------------------ 

 <URL>  &docid=f:72722.wais 



 <URL>  







