


=============================== Today's Dates ================================ Gregorian date: Thursday, October 27, 2005 C.E. Hebrew date (ends at sunset tonight): 24 Tishrei, 5766 Hebrew date (begins at sunset tonight): 25 Tishrei, 5766 Islamic date (predicted; ends at sunset tonight): 23 RamaDHaan 1426 A.H. Islamic date (predicted; begins at sunset tonight): 24 RamaDHaan 1426 A.H. Julian Day (at midnight, the start of today): 2453670.5 Modified Julian Day: 53670 Maya date: 12.19.12.13.5 ; 2 Chikchan (Snake) ; 3 Zak (White?) French Revolutionary Calendar date: Quartidi, 14 Brumaire, 214 Y.R. RickDate: 1JPAR ( <URL> ) Age of moon at midnight GMT: 23.87 days. Next phase of moon: New Moon on 12/1/2005 at 15:00 GMT. Next season: Winter Solstice on 12/21/2005 at 18:36 GMT. 
============================== Today's Almanac =============================== ----------- Birthdays (and other important dates) of Callahanians ------------ Birthday of Brian Griffin (1963)  Birthday of Laura Packer (1967)  Birthday of John Fleming (1969)  Birthday of Rincewind (1975)  ------------------------- Fixed Holidays and Events -------------------------- Cuba: Discovery Day (1492) USA: Navy Day (1775) ---------------------- Birthdays of Famous Individuals ----------------------- 1466: Birth of Desiderius Erasmus 1728: Birth of Capt. James Cook (explorer)  1782: Birth of Niccolo Paganini (composer)  1811: Birth of Isaac Singer (sewing machine inventor)  1858: Birth of Theodore Roosevelt (26th US Pres.)  1872: Birth of Emily Post 1914: Birth of Dylan Marlais Thomas (poet)  1920: Birth of Nanette Fabray 1923: Birth of Roy Lichtenstein (artist)  1939: Birth of John Cleese (actor/comedian)  1958: Birth of Simon LeBon (singer with Duran Duran)  ------------------------------ Today in History ------------------------------      In 1616: Dirck Hartog left island, leaving a pewter plate as a monument      In 1775: US Navy founded      In 1787: First of the "Federalist Papers" published in a New York newspaper      In 1991: Poland held its first free Parliamentary election 
============= A look at tomorrow: Friday, October 28, 2005 C.E. ============== ----------- Birthdays (and other important dates) of Callahanians ------------ Birthday of Debra Fisher (1954)  Birthday of AJ (1959)  Birthday of arson (Jeff Cole)  (1976)    Email:  <EMAILADDRESS>  Wedding anniversary of Mongoose and George (Judith and George Pine)  (1986)    Email:  <EMAILADDRESS>  ------------------------- Fixed Holidays and Events -------------------------- Czechoslovakia: Foundation of the Republic Day (1918) Greece: Ochi Day (1940) ---------------------- Birthdays of Famous Individuals ----------------------- 1903: Birth of Evelyn Waugh 1914: Birth of Jonas Salk (inventor of polio vaccine)  1936: Birth of Charlie Daniels (country musician)  1955: Birth of William Gates (software tycoon)  19??: Birth of Annie Potts (actor)  ------------------------------ Today in History ------------------------------      In 1636: Harvard College, now Harvard University, established      In 1776: Howe failed to destroy Washington's army      In 1886: Statue of Liberty dedicated      In 1962: Nikita Khrushchev said Soviet missiles would be removed from Cuba      In 312: Constantine's army defeated Maxentius' forces in Rome 

-- Take care, Tom Lee ( <EMAILADDRESS> ) "The Lamplighter" 
"When once the Apostle Paul had posited universal love between men as the foundation of his Christian community, extreme intolerance on the part of Christendom towards those who remained outside it became the inevitable consequence." 	-- Sigmund Freud 

