


 <URL>   <URL>   
reprinted from Daily Health News, January 23, 2006  URL:  <URL>   
Is this an incredible "magic bullet?" Or are there risks involved? Or, is it missing the mark altogether? 
A VIRUS IS THE CULPRIT... AFFECTING MEN AND WOMEN  
IS A VACCINE THE ANSWER? 
A SHOT IN THE ARM FOR MEN, TOO 
The vaccine is currently being tested on men, where it can benefit in three ways...  

-------------------------------------------------------------------------------- 
Sources 

