


On May 25, 8:54 am, the 3rd Man < <EMAILADDRESS> > wrote: =3D=3D=3D=3D=3D=3D=3D=3D=3D=3D=3D=3D=3D=3D=3D=3D=3D=3D=3D=3D=3D=3D=3D=3D=3D= =3D=3D=3D=3D=3D=3D=3D=3D=3D=3D=3D=3D=3D=3D=3D 
=93vaccination for Lyme disease made my symptoms worse=94. 
this part doesn't even makes sense. So the ones being vaccinated had already symptoms??. I thought the idea of the vaccine (for the most part) was prevention. 

