



On Sat, 4 Oct 2008, marika wrote: 


Some people develop a sensitivity where they become more sensitive, or  their immune system starts failing. 
  I think it's because he's using the vaccine.  


















































