



 <URL>  
Cholera Spreading Rapidly Across Iraq  
50% of the cholera cases and 50% of the deaths from it have been of Iraqi children 5 years old or younger 
Uruknet November 5, 2008 


Spread of Cholera Across Iraq In 2008 

   ------------------------------------------------------- 
13 Agenda21 Says:  
November 12th, 2008 at 9:13 pm  Have we been giving them more vaccines before this? 

12 jollyroger Says:  
November 12th, 2008 at 10:33 am  #10 Robertno truer words were spoken. We all share the blame. #11 get an education. 

11 Mohammed AL-Saedi Says:  


2008 Alex Jones  Infowars.com  



