


On Feb 15, 1:57=A0pm, Roof Moss < <EMAILADDRESS> > wrote: e:  where if go I looked r while ntial ut up ne ating cle ght n . e ses, nt from d d ted. as ine...  his =A0He d k ___________________ Please stop drinking the Kool-aid line on vaccines! 
-CC 

