


127.0.0.1 wrote: ------------------- Read it yourself, it was in all the first newsstories about it. 
This is modern PUBLIC research like the polio vaccines. This is RIGHT! THAT'S the difference, dummy.  
  -------------------------- That WASN'T for prevention of disease, instead they INTENTIONALLY GAVE them a disease!! 

---------------------- You're a classic deluded right-wing paranoid. 



-------------------------- If it was structly money that elected Congress you'd be right, but it doesn't, not directly. 
  ---------------------- I have no such delusion. They are crooked as hell, many if not most of them, but they fear PRISON! 
   ----------------------------- And they do better at it than the poor do, but they are NOT the govt.   
----------------------- Not at all. But the times when that can be pulled are rare. 
For all we know, this may be the reason the rest of the galaxy isn't responding to our broadcasts!!!  

------------------ The wage slaves are nothing like me, you liar. You don't even believe your own crap. 

--------------------- Not even self-employment alleviates that. 

---------------------- Actually it's 2%, and unlike most, I'm against it. 
  -------------------------- WRONG! The government is your ONLY hope AGAINST It! Steve 

