



"Peter Bowditch" < <EMAILADDRESS> > wrote in message   <NEWSURL> ... 
Liar, liar. As all can you, Peter Bowditch is a repeated liar. 
A tiny fraction of the size, and placed on ratbag only as a target of would be mockery/ridicule. 
Especially if the kid is perfectly healthy and suddenly develops a bad lifelong disorder. 
Doctors should take part of the gamble involved. 
Parents are gambling with their kids lives. 

Text from the ratbags site: 
 <URL>  
 <URL>  

I expect that we will be waiting a very long time. 
------------------------------------------------- 


Physician's Warranty of Vaccine Safety 



Risk Factor ____________________________________________ 

Vaccination  ___________________________________________ 

Risk Factor ____________________________________________ 

Vaccination  ___________________________________________ 

Risk Factor ____________________________________________ 

Vaccination  ___________________________________________ 

Risk Factor ____________________________________________ 

Vaccination  ___________________________________________ 

Risk Factor ____________________________________________ 

Vaccination  ___________________________________________ 

Risk Factor ____________________________________________ 

Vaccination  ___________________________________________ 

I am aware that vaccines typically contain many of the following fillers: 

*         aluminum hydroxide 

*         aluminum phosphate 

*         ammonium sulfate 

*         amphotericin B 

*         animal tissues: pig blood, horse blood, rabbit brain, 

*         dog kidney, monkey kidney, 

*         chick embryo, chicken egg, duck egg 

*         calf (bovine) serum 

*         betapropiolactone 

*         fetal bovine serum 

*         formaldehyde 

*         formalin 

*         gelatin 

*         glycerol 

*         human diploid cells (originating from human aborted fetal tissue) 

*         hydrolized gelatin 

*         mercury thimerosol (thimerosal, Merthiolate(r)) 

*         monosodium glutamate (MSG) 

*         neomycin 

*         neomycin sulfate 

*         phenol red indicator 

*         phenoxyethanol (antifreeze) 

*         potassium diphosphate 

*         potassium monophosphate 

*         polymyxin B 

*         polysorbate 20 

*         polysorbate 80 

*         porcine (pig) pancreatic hydrolysate of casein 

*         residual MRC5 proteins 

*         sorbitol 

*         tri(n)butylphosphate, 

*         VERO cells, a continuous line of monkey kidney cells, and 

*         washed sheep red blood 





STEPS TAKEN: ______________________________________________________ 

____________________________________________________________________ 

____________________________________________________________________ 

____________________________________________________________________ 






Hepatitis B 





_______________________________________________________________________ 

_______________________________________________________________________ 

_______________________________________________________________________ 





__________________________________ (Name of Attending Physician) 

__________________________________ L.S. (Signature of Attending Physician) 

Signed on this _______ day of ______________ A.D. ________ 

Witness: _______________________________  Date: ______________________ 

Notary Public: ___________________________  Date: ______________________ 




