



"Mark Probert" < <EMAILADDRESS> > wrote in message   <NEWSURL> ... It is about time we had a Surgeon General who was more concerned about child health, than the health of politics. 
 <URL> / 
 1. Make sure your child is up-to-date on immunizations; visit CDC's childhood scheduler online at www2a.cdc.gov/nip/kidstuff/ newscheduler_le/ find out what immunizations your child needs 
 2. Get an immunization card or record, and bring it to every doctors visit 
 3. Ask at every visit if your child needs an immunization 
 4. Talk with your child's doctor, and don't be afraid to ask questions 
 5. Visit the CDC Web site at www.cdc.gov/vaccines or call 1-800-CDC- INFO for more information on immunizations. 
 6. The good news is that we are fortunate in this country to have free and low-cost vaccination programs. Talk to your healthcare provider today. 
Dr. Anne Schuchat, U.S. Surgeon General == 





Physician's Warranty of Vaccine Safety 
Risk Factor ____________________________________________ 
Vaccination  ___________________________________________ 
Risk Factor ____________________________________________ 
Vaccination  ___________________________________________ 
Risk Factor ____________________________________________ 
Vaccination  ___________________________________________ 
Risk Factor ____________________________________________ 
Vaccination  ___________________________________________ 
Risk Factor ____________________________________________ 
Vaccination  ___________________________________________ 
Risk Factor ____________________________________________ 
Vaccination  ___________________________________________ 


I am aware that vaccines typically contain many of the following fillers: 
*         aluminum hydroxide 
*         aluminum phosphate 
*         ammonium sulfate 
*         amphotericin B 
*         animal tissues: pig blood, horse blood, rabbit brain, 
*         dog kidney, monkey kidney, 
*         chick embryo, chicken egg, duck egg 
*         calf (bovine) serum 
*         betapropiolactone 
*         fetal bovine serum 
*         formaldehyde 
*         formalin 
*         gelatin 
*         glycerol 
*         human diploid cells (originating from human aborted fetal tissue) 
*         hydrolized gelatin 
*         mercury thimerosol (thimerosal, Merthiolate(r)) 
*         monosodium glutamate (MSG) 
*         neomycin 
*         neomycin sulfate 
*         phenol red indicator 
*         phenoxyethanol (antifreeze) 
*         potassium diphosphate 
*         potassium monophosphate 
*         polymyxin B 
*         polysorbate 20 
*         polysorbate 80 
*         porcine (pig) pancreatic hydrolysate of casein 
*         residual MRC5 proteins 
*         sorbitol 
*         tri(n)butylphosphate, 
*         VERO cells, a continuous line of monkey kidney cells, and 
*         washed sheep red blood 
STEPS TAKEN: ______________________________________________________ 
____________________________________________________________________ 
____________________________________________________________________ 
____________________________________________________________________ 


Hepatitis B 
_______________________________________________________________________ 
_______________________________________________________________________ 
_______________________________________________________________________ 



__________________________________ (Name of Attending Physician) 
__________________________________ L.S. (Signature of Attending Physician) 
Signed on this _______ day of ______________ A.D. ________ 
Witness: _______________________________  Date: ______________________ 
Notary Public: ___________________________  Date: ______________________  


