


This is a reply from a friend of mine in Kansas City, a biochemist, to  my forwarding of Shermer's article on vaccines-autism. 
Doug Rushing wrote: 
< <URL> > < <URL> /> < <URL> > 
_______________________________________________ Skeptix mailing list  <EMAILADDRESS>   <URL>  

